/Users/gregorycailley/Dev/Learning/Java/java-mongo-rest/src/main/java/com/gcailley/javamongorest/model/Task.java
/Users/gregorycailley/Dev/Learning/Java/java-mongo-rest/src/main/java/com/gcailley/javamongorest/repository/TaskRepository.java
/Users/gregorycailley/Dev/Learning/Java/java-mongo-rest/src/main/java/com/gcailley/javamongorest/dto/TaskDTO.java
/Users/gregorycailley/Dev/Learning/Java/java-mongo-rest/src/main/java/com/gcailley/javamongorest/controller/TaskController.java
/Users/gregorycailley/Dev/Learning/Java/java-mongo-rest/src/main/java/com/gcailley/javamongorest/JavaMongoRestApplication.java
/Users/gregorycailley/Dev/Learning/Java/java-mongo-rest/src/main/java/com/gcailley/javamongorest/service/TaskService.java
/Users/gregorycailley/Dev/Learning/Java/java-mongo-rest/src/main/java/com/gcailley/javamongorest/mapper/TaskMapper.java
